[
{
"post":	   "Тема 1",
"text":    "коммент 100 ",
"datetime":    "21.00 21.07.2013"
}
,
{
"post":"Тема 1",
"text":"коммент 94 ",
"datetime":"13.00 21.07.2013"
},
{
"post":"Тема 1",
"text":"коммент 93 в ",
"datetime":"11.00 21.07.2013"
},
{
"post":"Тема 1",
 "text":"коммент 92 в ",
"datetime":"10.00 21.07.2013"
},
{
"post":"Тема 1",
"text":" коммент 84 в ",
"datetime":"13.55 11.07.2013"
},
{
"post":"Тема 1",
"text":"коммент 99",
"datetime":"20.00 21.07.2013"
},
{
"post":"Тема 1",
"text":"коммент 98 ",
"datetime":"15.00 21.07.2013"
},
{
"post":"Тема 3",
"text":" коммент 91 в ",
"datetime":"09.00 21.07.2013"
},
{
"post":"Тема 3",
"text":" коммент 90 в ",
"datetime":"18.00 21.07.2013"
},
{
"post":"Тема 3",
"text":"коммент 88 в ",
"datetime":"21.00 11.07.2013"
},
{
"post":"Тема 2",
"text":"коммент 97 ",
"datetime":"14.00 21.07.2013"
},
{
"post":"Тема 3",
"text":" коммент 87 в ",
"datetime":"20.00 11.07.2013"
},
{
"post":"Тема 2",
"text":" коммент 80 в ",
"datetime":"18.00 11.07.2013"
},
{
"post":"Тема 1",
"text":" коммент 85 в ",
"datetime":"14.00 11.07.2013"
},
{
"post":"Тема 3",
"text":" коммент 82 в ",
"datetime":"13.00 11.07.2013"
},
{
"post":"Тема 2",
"text":"коммент 70 в ",
"datetime":"17.00 11.07.2013"
}
]